[
    {"userId":"76503", "clientId": "2721", "projectId":"66207","planId":"1039118", "planName": "ACME Canada Alberta, Acct & Fund"},
    {"userId":"76503", "clientId": "2721", "projectId":"66207","planId":"951357", "planName": "ACME US Retirement Plan 1"},
    {"userId":"76503", "clientId": "2721", "projectId":"66207","planId":"951757", "planName": "ACME US Retirement Plan 2"}
]