{
  "intents": [
    {
      "intent": "AMAZON.HelpIntent"
    },
    {
      "intent": "AMAZON.StopIntent"
    },
    {
      "intent": "AMAZON.CancelIntent"
    },
    {
      "intent": "StartFSMService"
    },
    {
      "intent": "StopFSMService"
    },
    {
      "intent": "GetConfirmation"
    },
    {
      "slots": [
        {
          "name": "CONSENT",
          "type": "LIST_OF_CONSENT"
        },
        {
          "name": "AUTHEMAIL",
          "type": "LIST_OF_EMAIL"
        }
      ],
      "intent": "SetConfirmation"
    },
    {
      "slots": [
        {
          "name": "PARAMETER",
          "type": "LIST_OF_PARAMETER"
        },
        {
          "name": "PARAMIDENTIFIER",
          "type": "LIST_OF_PARAMID"
        }
      ],
      "intent": "SetParameter"
    },
    {
      "slots" : [
        {
          "name": "VALDATE",
          "type": "AMAZON.DATE"
        }
      ],
      "intent": "GetMeDefaultPlanFundLevel"
    },
    {
      "slots": [
        {
          "name": "CLIENT",
          "type": "LIST_OF_CLIENT"
        },
        {
          "name": "PROJECT",
          "type": "LIST_OF_PROJECT"
        },
        {
          "name": "PLAN",
          "type": "LIST_OF_PLAN"
        },
        {
          "name": "BASIS",
          "type": "LIST_OF_BASIS"
        },
        {
          "name": "VALDATE",
          "type": "AMAZON.DATE"
        }
      ],
      "intent": "GetMeFundLevel"
    }
  ]
}